EESchema Schematic File Version 4
EELAYER 30 0
EELAYER END
$Descr A4 11693 8268
encoding utf-8
Sheet 1 1
Title "USB CAN-FD Adapter"
Date "2020-12-17"
Rev "2"
Comp "Loroco"
Comment1 ""
Comment2 ""
Comment3 ""
Comment4 ""
$EndDescr
$Comp
L Interface_CAN_LIN:MCP2562-E-SN U2
U 1 1 5DA1D8A0
P 8600 1850
F 0 "U2" H 8250 2200 50  0000 C CNN
F 1 "MCP2562-E-SN" H 9000 2200 50  0000 C CNN
F 2 "Package_SO:SOIC-8_3.9x4.9mm_P1.27mm" H 8600 1350 50  0001 C CIN
F 3 "http://ww1.microchip.com/downloads/en/DeviceDoc/25167A.pdf" H 8600 1850 50  0001 C CNN
	1    8600 1850
	1    0    0    -1  
$EndComp
$Comp
L power:VBUS #PWR0101
U 1 1 5DA1D96A
P 8600 1050
F 0 "#PWR0101" H 8600 900 50  0001 C CNN
F 1 "VBUS" H 8615 1223 50  0000 C CNN
F 2 "" H 8600 1050 50  0001 C CNN
F 3 "" H 8600 1050 50  0001 C CNN
	1    8600 1050
	1    0    0    -1  
$EndComp
$Comp
L power:GND #PWR0102
U 1 1 5DA1DA56
P 8600 2350
F 0 "#PWR0102" H 8600 2100 50  0001 C CNN
F 1 "GND" H 8605 2177 50  0000 C CNN
F 2 "" H 8600 2350 50  0001 C CNN
F 3 "" H 8600 2350 50  0001 C CNN
	1    8600 2350
	1    0    0    -1  
$EndComp
Wire Wire Line
	8600 2350 8600 2250
$Comp
L Device:C_Small C12
U 1 1 5DA1DB2C
P 8900 1250
F 0 "C12" V 9129 1250 50  0000 C CNN
F 1 "100nF/16V" V 9038 1250 50  0000 C CNN
F 2 "Capacitor_SMD:C_0603_1608Metric_Pad1.05x0.95mm_HandSolder" H 8900 1250 50  0001 C CNN
F 3 "~" H 8900 1250 50  0001 C CNN
	1    8900 1250
	0    -1   -1   0   
$EndComp
$Comp
L power:GND #PWR0103
U 1 1 5DA1DCAD
P 9100 1250
F 0 "#PWR0103" H 9100 1000 50  0001 C CNN
F 1 "GND" V 9105 1122 50  0000 R CNN
F 2 "" H 9100 1250 50  0001 C CNN
F 3 "" H 9100 1250 50  0001 C CNN
	1    9100 1250
	0    -1   -1   0   
$EndComp
Wire Wire Line
	9100 1250 9000 1250
Wire Wire Line
	8600 1050 8600 1250
Wire Wire Line
	8600 1250 8800 1250
Connection ~ 8600 1250
Wire Wire Line
	8600 1250 8600 1450
$Comp
L Connector:Screw_Terminal_01x03 J2
U 1 1 5DA1E03D
P 10050 1850
F 0 "J2" H 10130 1892 50  0000 L CNN
F 1 "Screw_Terminal_01x03" H 10130 1801 50  0000 L CNN
F 2 "Footprints:TerminalBlock_NKE_WJ301_1x03_P5.00mm_Vertical" H 10050 1850 50  0001 C CNN
F 3 "https://datasheet.lcsc.com/szlcsc/1811021917_Ningbo-Kangnex-Elec-WJ301V-5-0-3P_C8483.pdf" H 10050 1850 50  0001 C CNN
	1    10050 1850
	1    0    0    -1  
$EndComp
Text Label 9750 1750 2    50   ~ 0
CANH
Wire Wire Line
	9750 1750 9850 1750
Text Label 9750 1850 2    50   ~ 0
CANL
Wire Wire Line
	9750 1850 9850 1850
$Comp
L power:GND #PWR0104
U 1 1 5DA1E2DB
P 9750 1950
F 0 "#PWR0104" H 9750 1700 50  0001 C CNN
F 1 "GND" V 9755 1822 50  0000 R CNN
F 2 "" H 9750 1950 50  0001 C CNN
F 3 "" H 9750 1950 50  0001 C CNN
	1    9750 1950
	0    1    1    0   
$EndComp
Wire Wire Line
	9750 1950 9850 1950
$Comp
L Device:R_Small R9
U 1 1 5DA1E5D4
P 9300 2450
F 0 "R9" V 9496 2450 50  0000 C CNN
F 1 "120R/5%" V 9405 2450 50  0000 C CNN
F 2 "Resistor_SMD:R_1206_3216Metric_Pad1.42x1.75mm_HandSolder" H 9300 2450 50  0001 C CNN
F 3 "~" H 9300 2450 50  0001 C CNN
	1    9300 2450
	0    -1   -1   0   
$EndComp
Text Label 9100 2450 2    50   ~ 0
CANH
Wire Wire Line
	9500 2450 9400 2450
Wire Wire Line
	9200 2450 9100 2450
Text Label 9200 1750 0    50   ~ 0
CANH
Text Label 9200 1950 0    50   ~ 0
CANL
Wire Wire Line
	9200 1950 9100 1950
Wire Wire Line
	9100 1750 9200 1750
$Comp
L power:VCC #PWR0105
U 1 1 5DA1F405
P 7450 1950
F 0 "#PWR0105" H 7450 1800 50  0001 C CNN
F 1 "VCC" V 7468 2077 50  0000 L CNN
F 2 "" H 7450 1950 50  0001 C CNN
F 3 "" H 7450 1950 50  0001 C CNN
	1    7450 1950
	0    -1   -1   0   
$EndComp
Text Label 8000 2050 2    50   ~ 0
CAN_STANDBY
Wire Wire Line
	8000 2050 8100 2050
Text Label 8000 1650 2    50   ~ 0
CAN_TX
Text Label 8000 1750 2    50   ~ 0
CAN_RX
Wire Wire Line
	8100 1750 8000 1750
Wire Wire Line
	8000 1650 8100 1650
$Comp
L Device:C_Small C11
U 1 1 5DA1FF7A
P 7550 1750
F 0 "C11" H 7459 1704 50  0000 R CNN
F 1 "100nF/16V" H 7459 1795 50  0000 R CNN
F 2 "Capacitor_SMD:C_0603_1608Metric_Pad1.05x0.95mm_HandSolder" H 7550 1750 50  0001 C CNN
F 3 "~" H 7550 1750 50  0001 C CNN
	1    7550 1750
	1    0    0    1   
$EndComp
Wire Wire Line
	7450 1950 7550 1950
Wire Wire Line
	7550 1950 7550 1850
Connection ~ 7550 1950
Wire Wire Line
	7550 1950 8100 1950
$Comp
L power:GND #PWR0106
U 1 1 5DA20AFE
P 7550 1550
F 0 "#PWR0106" H 7550 1300 50  0001 C CNN
F 1 "GND" H 7555 1377 50  0000 C CNN
F 2 "" H 7550 1550 50  0001 C CNN
F 3 "" H 7550 1550 50  0001 C CNN
	1    7550 1550
	-1   0    0    1   
$EndComp
Wire Wire Line
	7550 1550 7550 1650
$Comp
L Connector:USB_B_Micro J1
U 1 1 5DA217DD
P 1800 1800
F 0 "J1" H 1855 2267 50  0000 C CNN
F 1 "USB_B_Micro" H 1855 2176 50  0000 C CNN
F 2 "Footprints:USB_Micro-B_XKB-U254-051N-4BH806" H 1950 1750 50  0001 C CNN
F 3 "https://datasheet.lcsc.com/szlcsc/1910111742_XKB-Enterprise-U254-051N-4BH83-F1B_C319169.pdf" H 1950 1750 50  0001 C CNN
	1    1800 1800
	1    0    0    -1  
$EndComp
$Comp
L power:GND #PWR0107
U 1 1 5DA2197C
P 1750 2500
F 0 "#PWR0107" H 1750 2250 50  0001 C CNN
F 1 "GND" H 1755 2327 50  0000 C CNN
F 2 "" H 1750 2500 50  0001 C CNN
F 3 "" H 1750 2500 50  0001 C CNN
	1    1750 2500
	1    0    0    -1  
$EndComp
Wire Wire Line
	1750 2500 1750 2400
Wire Wire Line
	1750 2400 1700 2400
Wire Wire Line
	1750 2400 1800 2400
Connection ~ 1750 2400
NoConn ~ 2100 2000
$Comp
L Device:C_Small C5
U 1 1 5DA233CA
P 2600 1200
F 0 "C5" H 2692 1246 50  0000 L CNN
F 1 "10nF/16V" H 2692 1155 50  0000 L CNN
F 2 "Capacitor_SMD:C_0603_1608Metric_Pad1.05x0.95mm_HandSolder" H 2600 1200 50  0001 C CNN
F 3 "~" H 2600 1200 50  0001 C CNN
	1    2600 1200
	1    0    0    -1  
$EndComp
$Comp
L power:GND #PWR0110
U 1 1 5DA26E61
P 2600 1000
F 0 "#PWR0110" H 2600 750 50  0001 C CNN
F 1 "GND" H 2605 827 50  0000 C CNN
F 2 "" H 2600 1000 50  0001 C CNN
F 3 "" H 2600 1000 50  0001 C CNN
	1    2600 1000
	-1   0    0    1   
$EndComp
Wire Wire Line
	2600 1000 2600 1100
Text Label 2200 1800 0    50   ~ 0
USB_D+
Text Label 2200 1900 0    50   ~ 0
USB_D-
Wire Wire Line
	2100 1800 2200 1800
$Comp
L power:GND #PWR0113
U 1 1 5DA20592
P 3100 7300
F 0 "#PWR0113" H 3100 7050 50  0001 C CNN
F 1 "GND" H 3105 7127 50  0000 C CNN
F 2 "" H 3100 7300 50  0001 C CNN
F 3 "" H 3100 7300 50  0001 C CNN
	1    3100 7300
	1    0    0    -1  
$EndComp
Wire Wire Line
	3100 7300 3100 7200
Wire Wire Line
	3300 7100 3300 7200
Wire Wire Line
	3300 7200 3200 7200
Connection ~ 3200 7200
Wire Wire Line
	3200 7200 3200 7100
Wire Wire Line
	3200 7200 3100 7200
Wire Wire Line
	3100 7200 3100 7100
Text Label 2300 5700 2    50   ~ 0
SWO
Text Label 4100 6700 0    50   ~ 0
SWDIO
Text Label 4100 6800 0    50   ~ 0
SWCLK
Wire Wire Line
	4100 6700 4000 6700
Wire Wire Line
	4100 6800 4000 6800
Wire Wire Line
	2400 5700 2300 5700
Text Label 2300 4400 2    50   ~ 0
NRST
$Comp
L stm32g431cbtx:STM32G431CBTx U1
U 1 1 5DA453ED
P 3200 5600
F 0 "U1" H 2550 6950 50  0000 C CNN
F 1 "STM32G431CBTx" H 3900 6950 50  0000 C CNN
F 2 "Package_QFP:LQFP-48_7x7mm_P0.5mm" H 2500 4200 50  0001 R CNN
F 3 "https://www.st.com/resource/en/datasheet/stm32g431c6.pdf" H 3200 5600 50  0001 C CNN
	1    3200 5600
	1    0    0    -1  
$EndComp
Connection ~ 3100 7200
Wire Wire Line
	3400 7100 3400 7200
Wire Wire Line
	3400 7200 3300 7200
Connection ~ 3300 7200
$Comp
L Device:Crystal_GND24_Small X1
U 1 1 5DA56AF3
P 1850 4650
F 0 "X1" V 1804 4791 50  0000 L CNN
F 1 "12MHz" V 1895 4791 50  0000 L CNN
F 2 "Rounded:Crystal_SMD_3225-4Pin_3.2x2.5mm_HandSoldering" H 1850 4650 50  0001 C CNN
F 3 "https://ecsxtal.com/store/pdf/ECX-1637B.pdf" H 1850 4650 50  0001 C CNN
	1    1850 4650
	0    1    -1   0   
$EndComp
Wire Wire Line
	2400 4700 2400 4800
Wire Wire Line
	2400 4800 1850 4800
Wire Wire Line
	1850 4800 1850 4750
Wire Wire Line
	2400 4600 2400 4500
Wire Wire Line
	2400 4500 1850 4500
Wire Wire Line
	1850 4500 1850 4550
$Comp
L power:GND #PWR0119
U 1 1 5DA5E381
P 2150 4650
F 0 "#PWR0119" H 2150 4400 50  0001 C CNN
F 1 "GND" V 2155 4522 50  0000 R CNN
F 2 "" H 2150 4650 50  0001 C CNN
F 3 "" H 2150 4650 50  0001 C CNN
	1    2150 4650
	0    -1   -1   0   
$EndComp
Wire Wire Line
	2150 4650 1950 4650
$Comp
L power:GND #PWR0120
U 1 1 5DA604CD
P 1150 4650
F 0 "#PWR0120" H 1150 4400 50  0001 C CNN
F 1 "GND" V 1155 4522 50  0000 R CNN
F 2 "" H 1150 4650 50  0001 C CNN
F 3 "" H 1150 4650 50  0001 C CNN
	1    1150 4650
	0    1    1    0   
$EndComp
$Comp
L Device:C_Small C1
U 1 1 5DA627E2
P 1650 4500
F 0 "C1" V 1421 4500 50  0000 C CNN
F 1 "15pF/50V" V 1512 4500 50  0000 C CNN
F 2 "Capacitor_SMD:C_0603_1608Metric_Pad1.05x0.95mm_HandSolder" H 1650 4500 50  0001 C CNN
F 3 "~" H 1650 4500 50  0001 C CNN
	1    1650 4500
	0    1    1    0   
$EndComp
Wire Wire Line
	1150 4650 1250 4650
Wire Wire Line
	1750 4500 1850 4500
Connection ~ 1850 4500
$Comp
L Device:C_Small C2
U 1 1 5DA6DE21
P 1450 4800
F 0 "C2" V 1221 4800 50  0000 C CNN
F 1 "15pF/50V" V 1312 4800 50  0000 C CNN
F 2 "Capacitor_SMD:C_0603_1608Metric_Pad1.05x0.95mm_HandSolder" H 1450 4800 50  0001 C CNN
F 3 "~" H 1450 4800 50  0001 C CNN
	1    1450 4800
	0    -1   1    0   
$EndComp
Connection ~ 1850 4800
Wire Wire Line
	1350 4800 1250 4800
Wire Wire Line
	1250 4800 1250 4650
Wire Wire Line
	1550 4800 1850 4800
Wire Wire Line
	1250 4500 1250 4650
Connection ~ 1250 4650
Wire Wire Line
	1250 4500 1550 4500
Wire Wire Line
	1250 4650 1750 4650
Text Label 2300 6200 2    50   ~ 0
CAN_RX
Text Label 2300 6300 2    50   ~ 0
CAN_TX
Wire Wire Line
	2300 6300 2400 6300
Wire Wire Line
	2300 6200 2400 6200
Wire Wire Line
	2300 4400 2400 4400
$Comp
L Device:C_Small C6
U 1 1 5DACB867
P 3000 3350
F 0 "C6" H 2909 3304 50  0000 R CNN
F 1 "100nF/16V" H 2909 3395 50  0000 R CNN
F 2 "Capacitor_SMD:C_0603_1608Metric_Pad1.05x0.95mm_HandSolder" H 3000 3350 50  0001 C CNN
F 3 "~" H 3000 3350 50  0001 C CNN
	1    3000 3350
	1    0    0    1   
$EndComp
$Comp
L Device:C_Small C7
U 1 1 5DAD6018
P 3100 3650
F 0 "C7" H 3009 3604 50  0000 R CNN
F 1 "100nF/16V" H 3009 3695 50  0000 R CNN
F 2 "Capacitor_SMD:C_0603_1608Metric_Pad1.05x0.95mm_HandSolder" H 3100 3650 50  0001 C CNN
F 3 "~" H 3100 3650 50  0001 C CNN
	1    3100 3650
	1    0    0    1   
$EndComp
$Comp
L Device:C_Small C8
U 1 1 5DAD8A06
P 3200 3900
F 0 "C8" H 3109 3854 50  0000 R CNN
F 1 "100nF/16V" H 3109 3945 50  0000 R CNN
F 2 "Capacitor_SMD:C_0603_1608Metric_Pad1.05x0.95mm_HandSolder" H 3200 3900 50  0001 C CNN
F 3 "~" H 3200 3900 50  0001 C CNN
	1    3200 3900
	1    0    0    1   
$EndComp
$Comp
L Device:C_Small C9
U 1 1 5DAD8A0C
P 3300 3350
F 0 "C9" H 3209 3304 50  0000 R CNN
F 1 "100nF/16V" H 3209 3395 50  0000 R CNN
F 2 "Capacitor_SMD:C_0603_1608Metric_Pad1.05x0.95mm_HandSolder" H 3300 3350 50  0001 C CNN
F 3 "~" H 3300 3350 50  0001 C CNN
	1    3300 3350
	-1   0    0    -1  
$EndComp
$Comp
L Device:C_Small C10
U 1 1 5DADDF43
P 3400 3650
F 0 "C10" H 3309 3604 50  0000 R CNN
F 1 "100nF/16V" H 3309 3695 50  0000 R CNN
F 2 "Capacitor_SMD:C_0603_1608Metric_Pad1.05x0.95mm_HandSolder" H 3400 3650 50  0001 C CNN
F 3 "~" H 3400 3650 50  0001 C CNN
	1    3400 3650
	-1   0    0    -1  
$EndComp
Wire Wire Line
	3200 4200 3200 4100
Wire Wire Line
	3100 4200 3100 4100
Wire Wire Line
	3000 4200 3000 4100
Wire Wire Line
	3300 4200 3300 4100
Wire Wire Line
	3400 4200 3400 4100
Wire Wire Line
	3500 4200 3500 4100
Wire Wire Line
	3500 4100 3400 4100
Connection ~ 3400 4100
Wire Wire Line
	3400 4100 3400 3750
Wire Wire Line
	3300 4100 3400 4100
Connection ~ 3300 4100
Wire Wire Line
	3300 4100 3300 3450
Wire Wire Line
	3300 4100 3200 4100
Connection ~ 3200 4100
Wire Wire Line
	3200 4100 3200 4000
Wire Wire Line
	3100 4100 3200 4100
Connection ~ 3100 4100
Wire Wire Line
	3100 4100 3100 3750
Wire Wire Line
	3100 4100 3000 4100
Connection ~ 3000 4100
Wire Wire Line
	3000 4100 3000 3450
$Comp
L power:GND #PWR0121
U 1 1 5DB02DEB
P 3200 3050
F 0 "#PWR0121" H 3200 2800 50  0001 C CNN
F 1 "GND" H 3205 2877 50  0000 C CNN
F 2 "" H 3200 3050 50  0001 C CNN
F 3 "" H 3200 3050 50  0001 C CNN
	1    3200 3050
	-1   0    0    1   
$EndComp
Wire Wire Line
	3300 3250 3300 3150
Wire Wire Line
	3300 3150 3200 3150
Wire Wire Line
	3200 3150 3200 3050
Wire Wire Line
	3200 3150 3100 3150
Wire Wire Line
	3000 3150 3000 3250
Connection ~ 3200 3150
Wire Wire Line
	3100 3550 3100 3150
Connection ~ 3100 3150
Wire Wire Line
	3100 3150 3000 3150
Wire Wire Line
	3200 3800 3200 3150
Wire Wire Line
	3400 3550 3400 3150
Wire Wire Line
	3400 3150 3300 3150
Connection ~ 3300 3150
$Comp
L power:VCC #PWR0122
U 1 1 5DB15BD1
P 3500 4000
F 0 "#PWR0122" H 3500 3850 50  0001 C CNN
F 1 "VCC" H 3517 4173 50  0000 C CNN
F 2 "" H 3500 4000 50  0001 C CNN
F 3 "" H 3500 4000 50  0001 C CNN
	1    3500 4000
	1    0    0    -1  
$EndComp
Wire Wire Line
	3500 4000 3500 4100
Connection ~ 3500 4100
$Comp
L Device:LED_Dual_AACC LD1
U 1 1 5DB6C127
P 6700 3300
F 0 "LD1" H 6700 3725 50  0000 C CNN
F 1 "LED_Dual_AACC" H 6700 3634 50  0000 C CNN
F 2 "Footprints:LED_RG_1210" H 6730 3300 50  0001 C CNN
F 3 "http://optoelectronics.liteon.com/upload/download/DS22-2001-038/LTST-C155KGJRKT.pdf" H 6730 3300 50  0001 C CNN
	1    6700 3300
	1    0    0    -1  
$EndComp
$Comp
L Device:R_Small R7
U 1 1 5DB6C879
P 5900 3200
F 0 "R7" V 6096 3200 50  0000 C CNN
F 1 "65R/5%" V 6005 3200 50  0000 C CNN
F 2 "Resistor_SMD:R_0603_1608Metric_Pad1.05x0.95mm_HandSolder" H 5900 3200 50  0001 C CNN
F 3 "~" H 5900 3200 50  0001 C CNN
	1    5900 3200
	0    -1   -1   0   
$EndComp
Wire Wire Line
	7000 3200 7100 3200
Wire Wire Line
	7100 3400 7000 3400
Text Label 7100 3200 0    50   ~ 0
LED_GREEN
Text Label 7100 3400 0    50   ~ 0
LED_RED
Wire Wire Line
	6300 3400 6400 3400
$Comp
L power:VCC #PWR0124
U 1 1 5DBBBC58
P 5700 3200
F 0 "#PWR0124" H 5700 3050 50  0001 C CNN
F 1 "VCC" V 5718 3327 50  0000 L CNN
F 2 "" H 5700 3200 50  0001 C CNN
F 3 "" H 5700 3200 50  0001 C CNN
	1    5700 3200
	0    -1   -1   0   
$EndComp
Text Label 4100 6600 0    50   ~ 0
UC_USB_D+
Text Label 4100 6500 0    50   ~ 0
UC_USB_D-
Wire Wire Line
	4100 6500 4000 6500
Wire Wire Line
	4100 6600 4000 6600
Text Label 2300 6100 2    50   ~ 0
CAN_STANDBY
Wire Wire Line
	2400 6100 2300 6100
Text Label 4100 5500 0    50   ~ 0
LED_RED
Text Label 4100 5400 0    50   ~ 0
LED_GREEN
Wire Wire Line
	4100 5500 4000 5500
Wire Wire Line
	4000 5400 4100 5400
Wire Wire Line
	1800 2200 1800 2400
Wire Wire Line
	1700 2200 1700 2400
$Comp
L power:GND #PWR0131
U 1 1 5DAA02D1
P 10150 4200
F 0 "#PWR0131" H 10150 3950 50  0001 C CNN
F 1 "GND" H 10155 4027 50  0000 C CNN
F 2 "" H 10150 4200 50  0001 C CNN
F 3 "" H 10150 4200 50  0001 C CNN
	1    10150 4200
	1    0    0    -1  
$EndComp
Text Label 10350 4200 3    50   ~ 0
CANH
Wire Wire Line
	10350 4200 10350 4100
Wire Wire Line
	10150 4200 10150 4100
Text Label 2300 5000 2    50   ~ 0
PC13
Text Label 2300 5100 2    50   ~ 0
PC14
Text Label 2300 5200 2    50   ~ 0
PC15
Wire Wire Line
	2400 5000 2300 5000
Wire Wire Line
	2300 5100 2400 5100
Wire Wire Line
	2400 5200 2300 5200
Text Label 10050 4200 3    50   ~ 0
PC13
Text Label 9950 4200 3    50   ~ 0
PC14
Text Label 9850 4200 3    50   ~ 0
PC15
Wire Wire Line
	10050 4200 10050 4100
Wire Wire Line
	9950 4100 9950 4200
Wire Wire Line
	9850 4100 9850 4200
Text Label 2300 6000 2    50   ~ 0
PB6
Text Label 2300 5900 2    50   ~ 0
PB5
Text Label 2300 5800 2    50   ~ 0
PB4
Wire Wire Line
	2300 5800 2400 5800
Wire Wire Line
	2400 5900 2300 5900
Wire Wire Line
	2300 6000 2400 6000
Text Label 10550 5100 1    50   ~ 0
PB6
Text Label 10450 5100 1    50   ~ 0
PB5
Text Label 10350 5100 1    50   ~ 0
PB4
Wire Wire Line
	10550 5100 10550 5200
Wire Wire Line
	10450 5100 10450 5200
Wire Wire Line
	10350 5100 10350 5200
Text Label 4100 6900 0    50   ~ 0
PA15
Wire Wire Line
	4000 6900 4100 6900
Text Label 10250 5100 1    50   ~ 0
PA15
Wire Wire Line
	10250 5100 10250 5200
Text Label 4100 5600 0    50   ~ 0
PA2
Text Label 4100 5700 0    50   ~ 0
PA3
Text Label 4100 5800 0    50   ~ 0
PA4
Text Label 4100 5900 0    50   ~ 0
PA5
Text Label 4100 6000 0    50   ~ 0
PA6
Text Label 4100 6100 0    50   ~ 0
PA7
Wire Wire Line
	4100 6100 4000 6100
Wire Wire Line
	4000 6000 4100 6000
Wire Wire Line
	4100 5900 4000 5900
Wire Wire Line
	4000 5800 4100 5800
Wire Wire Line
	4100 5700 4000 5700
Wire Wire Line
	4000 5600 4100 5600
Text Label 9750 4200 3    50   ~ 0
PA2
Text Label 9650 4200 3    50   ~ 0
PA3
Text Label 9550 4200 3    50   ~ 0
PA4
Text Label 9450 4200 3    50   ~ 0
PA5
Text Label 9350 4200 3    50   ~ 0
PA6
Text Label 9250 4200 3    50   ~ 0
PA7
Wire Wire Line
	9750 4100 9750 4200
Wire Wire Line
	9650 4100 9650 4200
Wire Wire Line
	9550 4100 9550 4200
Wire Wire Line
	9450 4100 9450 4200
Wire Wire Line
	9350 4100 9350 4200
Wire Wire Line
	9250 4100 9250 4200
Text Label 2300 5400 2    50   ~ 0
PB0
Text Label 2300 5500 2    50   ~ 0
PB1
Text Label 2300 5600 2    50   ~ 0
PB2
Wire Wire Line
	2300 5600 2400 5600
Wire Wire Line
	2400 5500 2300 5500
Wire Wire Line
	2300 5400 2400 5400
Text Label 9150 4200 3    50   ~ 0
PB0
Text Label 9050 4200 3    50   ~ 0
PB1
Text Label 8950 4200 3    50   ~ 0
PB2
Wire Wire Line
	9150 4100 9150 4200
Wire Wire Line
	9050 4100 9050 4200
Wire Wire Line
	8950 4100 8950 4200
Text Label 4100 6400 0    50   ~ 0
PA10
Text Label 4100 6300 0    50   ~ 0
PA9
Text Label 4100 6200 0    50   ~ 0
PA8
Wire Wire Line
	4100 6200 4000 6200
Wire Wire Line
	4000 6300 4100 6300
Wire Wire Line
	4100 6400 4000 6400
Text Label 10150 5100 1    50   ~ 0
PA10
Text Label 10050 5100 1    50   ~ 0
PA9
Text Label 9950 5100 1    50   ~ 0
PA8
Wire Wire Line
	10150 5200 10150 5100
Wire Wire Line
	10050 5200 10050 5100
Wire Wire Line
	9950 5100 9950 5200
Text Label 2300 6900 2    50   ~ 0
PB15
Text Label 2300 6800 2    50   ~ 0
PB14
Text Label 2300 6700 2    50   ~ 0
PB13
Text Label 2300 6600 2    50   ~ 0
PB12
Text Label 2300 6500 2    50   ~ 0
PB11
Wire Wire Line
	2300 6500 2400 6500
Wire Wire Line
	2400 6600 2300 6600
Wire Wire Line
	2300 6700 2400 6700
Wire Wire Line
	2400 6800 2300 6800
Wire Wire Line
	2300 6900 2400 6900
Text Label 9850 5100 1    50   ~ 0
PB15
Text Label 9750 5100 1    50   ~ 0
PB14
Text Label 9650 5100 1    50   ~ 0
PB13
Text Label 9450 5100 1    50   ~ 0
PB11
Text Label 9550 5100 1    50   ~ 0
PB12
Wire Wire Line
	9850 5100 9850 5200
Wire Wire Line
	9750 5100 9750 5200
Wire Wire Line
	9650 5100 9650 5200
Wire Wire Line
	9550 5100 9550 5200
Wire Wire Line
	9450 5100 9450 5200
$Comp
L Graphic:SYM_Flash_Small LOGO1
U 1 1 5DA81A90
P 750 7500
F 0 "LOGO1" H 829 7561 50  0000 L CNN
F 1 "Flatmush" H 829 7470 50  0000 L CNN
F 2 "Footprints:Flatmush" H 750 7475 50  0001 C CNN
F 3 "~" H 1150 7400 50  0001 C CNN
	1    750  7500
	1    0    0    -1  
$EndComp
Wire Wire Line
	5700 3200 5800 3200
Wire Notes Line
	2050 4900 800  4900
Wire Notes Line
	800  4900 800  4400
Wire Notes Line
	800  4400 2050 4400
Wire Notes Line
	2050 4400 2050 4900
Text Notes 800  5000 0    50   ~ 0
Optional: Improves Timing
$Comp
L Connector_Generic:Conn_01x19 J4
U 1 1 5DCAB2F4
P 9650 3900
F 0 "J4" V 9867 3896 50  0000 C CNN
F 1 "Conn_01x19" V 9776 3896 50  0000 C CNN
F 2 "Connector_PinHeader_2.54mm:PinHeader_1x19_P2.54mm_Vertical" H 9650 3900 50  0001 C CNN
F 3 "~" H 9650 3900 50  0001 C CNN
	1    9650 3900
	0    -1   -1   0   
$EndComp
$Comp
L Connector_Generic:Conn_01x19 J5
U 1 1 5DCB7CF1
P 9650 5400
F 0 "J5" V 9775 5396 50  0000 C CNN
F 1 "Conn_01x19" V 9866 5396 50  0000 C CNN
F 2 "Connector_PinHeader_2.54mm:PinHeader_1x19_P2.54mm_Vertical" H 9650 5400 50  0001 C CNN
F 3 "~" H 9650 5400 50  0001 C CNN
	1    9650 5400
	0    -1   1    0   
$EndComp
Text Label 9500 2450 0    50   ~ 0
CANH_Term
Text Label 10550 4200 3    50   ~ 0
CANL
Text Label 10450 4200 3    50   ~ 0
CANH_Term
Text Label 10250 4200 3    50   ~ 0
CANL
Wire Wire Line
	10250 4200 10250 4100
Wire Wire Line
	10450 4200 10450 4100
Wire Wire Line
	10550 4200 10550 4100
Text Label 9350 5100 1    50   ~ 0
PB10
Wire Wire Line
	9350 5100 9350 5200
Text Label 2300 6400 2    50   ~ 0
PB10
Wire Wire Line
	2300 6400 2400 6400
Text Label 9250 5100 1    50   ~ 0
NRST
Text Label 9150 5100 1    50   ~ 0
SWO
Text Label 9050 5100 1    50   ~ 0
SWCLK
Text Label 8950 5100 1    50   ~ 0
SWDIO
Wire Wire Line
	9250 5100 9250 5200
Wire Wire Line
	9150 5100 9150 5200
Wire Wire Line
	9050 5100 9050 5200
Wire Wire Line
	8950 5100 8950 5200
$Comp
L power:VCC #PWR0109
U 1 1 5DEAB264
P 8650 5100
F 0 "#PWR0109" H 8650 4950 50  0001 C CNN
F 1 "VCC" V 8668 5227 50  0000 L CNN
F 2 "" H 8650 5100 50  0001 C CNN
F 3 "" H 8650 5100 50  0001 C CNN
	1    8650 5100
	0    -1   -1   0   
$EndComp
$Comp
L power:GND #PWR0111
U 1 1 5DEBE261
P 8650 5000
F 0 "#PWR0111" H 8650 4750 50  0001 C CNN
F 1 "GND" V 8655 4872 50  0000 R CNN
F 2 "" H 8650 5000 50  0001 C CNN
F 3 "" H 8650 5000 50  0001 C CNN
	1    8650 5000
	0    1    1    0   
$EndComp
Wire Wire Line
	8650 5100 8750 5100
Wire Wire Line
	8750 5100 8750 5200
Wire Wire Line
	8650 5000 8850 5000
Wire Wire Line
	8850 5000 8850 5200
$Comp
L power:VBUS #PWR0112
U 1 1 5DED27A1
P 8650 4200
F 0 "#PWR0112" H 8650 4050 50  0001 C CNN
F 1 "VBUS" V 8665 4327 50  0000 L CNN
F 2 "" H 8650 4200 50  0001 C CNN
F 3 "" H 8650 4200 50  0001 C CNN
	1    8650 4200
	0    -1   -1   0   
$EndComp
$Comp
L power:GND #PWR0114
U 1 1 5DEDC674
P 8650 4300
F 0 "#PWR0114" H 8650 4050 50  0001 C CNN
F 1 "GND" V 8655 4172 50  0000 R CNN
F 2 "" H 8650 4300 50  0001 C CNN
F 3 "" H 8650 4300 50  0001 C CNN
	1    8650 4300
	0    1    1    0   
$EndComp
Wire Wire Line
	8650 4200 8750 4200
Wire Wire Line
	8750 4200 8750 4100
Wire Wire Line
	8850 4300 8650 4300
Wire Wire Line
	8850 4100 8850 4300
Wire Wire Line
	2100 1900 2200 1900
Connection ~ 2600 1600
Wire Wire Line
	2600 1300 2600 1600
Wire Wire Line
	3100 1600 3000 1600
$Comp
L power:VBUS #PWR0108
U 1 1 5DA266B8
P 3100 1600
F 0 "#PWR0108" H 3100 1450 50  0001 C CNN
F 1 "VBUS" V 3115 1728 50  0000 L CNN
F 2 "" H 3100 1600 50  0001 C CNN
F 3 "" H 3100 1600 50  0001 C CNN
	1    3100 1600
	0    1    1    0   
$EndComp
Wire Wire Line
	2600 1600 2800 1600
$Comp
L Device:Ferrite_Bead_Small FB1
U 1 1 5DA23528
P 2900 1600
F 0 "FB1" V 3137 1600 50  0000 C CNN
F 1 "1.5A/22R" V 3046 1600 50  0000 C CNN
F 2 "Inductor_SMD:L_0603_1608Metric_Pad1.05x0.95mm_HandSolder" V 2830 1600 50  0001 C CNN
F 3 "~" H 2900 1600 50  0001 C CNN
	1    2900 1600
	0    -1   -1   0   
$EndComp
Text Notes 4300 2400 0    50   ~ 0
Combined Bulk & Filter
Wire Notes Line
	4400 2300 5050 2300
Wire Notes Line
	4400 1550 4400 2300
Wire Notes Line
	5050 1550 4400 1550
Wire Notes Line
	5050 2300 5050 1550
Wire Wire Line
	5900 1650 6000 1650
Connection ~ 5900 1650
Wire Wire Line
	5900 1850 5900 1650
Wire Wire Line
	4900 1650 5100 1650
Connection ~ 4900 1650
Wire Wire Line
	4900 1650 4900 1850
Wire Wire Line
	5900 2200 5400 2200
Wire Wire Line
	5900 2050 5900 2200
Connection ~ 5400 2200
Wire Wire Line
	5400 2200 5400 2300
Wire Wire Line
	5400 1950 5400 2200
Wire Wire Line
	4900 2200 5400 2200
Wire Wire Line
	4900 2050 4900 2200
Wire Wire Line
	4800 1650 4900 1650
Wire Wire Line
	5700 1650 5900 1650
$Comp
L power:VBUS #PWR0118
U 1 1 5DABBB2F
P 4800 1650
F 0 "#PWR0118" H 4800 1500 50  0001 C CNN
F 1 "VBUS" V 4815 1777 50  0000 L CNN
F 2 "" H 4800 1650 50  0001 C CNN
F 3 "" H 4800 1650 50  0001 C CNN
	1    4800 1650
	0    -1   -1   0   
$EndComp
$Comp
L power:VCC #PWR0117
U 1 1 5DAB8483
P 6000 1650
F 0 "#PWR0117" H 6000 1500 50  0001 C CNN
F 1 "VCC" V 6017 1778 50  0000 L CNN
F 2 "" H 6000 1650 50  0001 C CNN
F 3 "" H 6000 1650 50  0001 C CNN
	1    6000 1650
	0    1    1    0   
$EndComp
$Comp
L Device:C_Small C14
U 1 1 5DA9E974
P 5900 1950
F 0 "C14" H 5992 1996 50  0000 L CNN
F 1 "1uF/16V" H 5992 1905 50  0000 L CNN
F 2 "Capacitor_SMD:C_0603_1608Metric_Pad1.05x0.95mm_HandSolder" H 5900 1950 50  0001 C CNN
F 3 "~" H 5900 1950 50  0001 C CNN
	1    5900 1950
	1    0    0    -1  
$EndComp
$Comp
L power:GND #PWR0116
U 1 1 5DA9B688
P 5400 2300
F 0 "#PWR0116" H 5400 2050 50  0001 C CNN
F 1 "GND" H 5405 2127 50  0000 C CNN
F 2 "" H 5400 2300 50  0001 C CNN
F 3 "" H 5400 2300 50  0001 C CNN
	1    5400 2300
	1    0    0    -1  
$EndComp
$Comp
L Regulator_Linear:AP2127N-3.3 U3
U 1 1 5DA9B235
P 5400 1650
F 0 "U3" H 5400 1892 50  0000 C CNN
F 1 "AP2127N-3.3" H 5400 1801 50  0000 C CNN
F 2 "Rounded:SOT-23_Handsoldering" H 5400 1875 50  0001 C CIN
F 3 "https://datasheet.lcsc.com/szlcsc/1809131520_HTC-Korea-TAEJIN-Tech-LM1108SF-3-3_C126018.pdf" H 5400 1650 50  0001 C CNN
	1    5400 1650
	1    0    0    -1  
$EndComp
$Comp
L Device:C_Small C15
U 1 1 5DA2343B
P 4900 1950
F 0 "C15" H 4992 1996 50  0000 L CNN
F 1 "4.7uF/16V" H 4992 1905 50  0000 L CNN
F 2 "Capacitor_SMD:C_0603_1608Metric_Pad1.05x0.95mm_HandSolder" H 4900 1950 50  0001 C CNN
F 3 "~" H 4900 1950 50  0001 C CNN
	1    4900 1950
	1    0    0    -1  
$EndComp
Wire Wire Line
	5600 5300 5500 5300
Wire Wire Line
	6700 5300 6600 5300
Text Label 6700 5300 0    50   ~ 0
UC_USB_D-
Text Label 5500 5300 2    50   ~ 0
UC_USB_D+
Wire Wire Line
	6600 5100 6700 5100
Wire Wire Line
	5500 5100 5600 5100
Text Label 5500 5100 2    50   ~ 0
USB_D+
Text Label 6700 5100 0    50   ~ 0
USB_D-
Wire Wire Line
	6100 4600 6100 4700
Wire Wire Line
	6100 5800 6100 5700
$Comp
L power:GND #PWR0125
U 1 1 5DBC5514
P 6100 5800
F 0 "#PWR0125" H 6100 5550 50  0001 C CNN
F 1 "GND" H 6105 5627 50  0000 C CNN
F 2 "" H 6100 5800 50  0001 C CNN
F 3 "" H 6100 5800 50  0001 C CNN
	1    6100 5800
	1    0    0    -1  
$EndComp
$Comp
L Power_Protection:USBLC6-2SC6 U4
U 1 1 5DBC0827
P 6100 5200
F 0 "U4" H 5850 5550 50  0000 C CNN
F 1 "USBLC6-2SC6" H 6400 5550 50  0000 C CNN
F 2 "Rounded:SOT-23-6_Handsoldering" H 5350 5600 50  0001 C CNN
F 3 "http://www2.st.com/resource/en/datasheet/CD00050750.pdf" H 6300 5550 50  0001 C CNN
	1    6100 5200
	1    0    0    -1  
$EndComp
Wire Wire Line
	2100 1600 2300 1600
Text Label 2300 1500 1    50   ~ 0
VBUS_Raw
Wire Wire Line
	2300 1500 2300 1600
Connection ~ 2300 1600
Wire Wire Line
	2300 1600 2600 1600
Text Label 6100 4600 1    50   ~ 0
VBUS_Raw
$Comp
L Device:R_Small R8
U 1 1 5E252086
P 6200 3400
F 0 "R8" V 6396 3400 50  0000 C CNN
F 1 "65R/5%" V 6305 3400 50  0000 C CNN
F 2 "Resistor_SMD:R_0603_1608Metric_Pad1.05x0.95mm_HandSolder" H 6200 3400 50  0001 C CNN
F 3 "~" H 6200 3400 50  0001 C CNN
	1    6200 3400
	0    -1   -1   0   
$EndComp
$Comp
L power:VCC #PWR0115
U 1 1 5E252090
P 5700 3400
F 0 "#PWR0115" H 5700 3250 50  0001 C CNN
F 1 "VCC" V 5718 3527 50  0000 L CNN
F 2 "" H 5700 3400 50  0001 C CNN
F 3 "" H 5700 3400 50  0001 C CNN
	1    5700 3400
	0    -1   -1   0   
$EndComp
Wire Wire Line
	5700 3400 6100 3400
Wire Wire Line
	6000 3200 6400 3200
$EndSCHEMATC
